{
  "type": "service_account",
  "project_id": "peppy-appliance-323108",
  "private_key_id": "7725e8ff12fc6d2eb9c1d9f836b942d20dc30272",
  "private_key": "-----BEGIN PRIVATE KEY-----\nMIIEvgIBADANBgkqhkiG9w0BAQEFAASCBKgwggSkAgEAAoIBAQCzEgo4Gy2vsWKt\nthoQvGF52jXq58kfo68OqKwznqkSzVrCgIx0EP1gZk+x2yKsQ+vmnNMFHwlXPTLP\nYtjDDUp7NGKaRTGwaluDJi9GtjXUEPrEcHWXGt39ZxmqglAjRW8BHQgV23WVq6Ht\n44xDkdwvoCse7lYo5Jkr3IKchEOkSfHevEwUDgxON8Woj1aVKDn3wLPdWRbYfAzh\nDFEBtSCxmJJNCW08/y/B9d1bE3EWMJ9LZ73GzyY6++JjMnjtTePKQ3y6rxtUPtQO\nHH+BOzWjHTvuzRx9Z7R2CMrcvAAvoJ0Y8XvrV8wl5fOWF+wFmkCzQwfA41o7B4bK\nA0E3eYlDAgMBAAECggEAL3F6oqXUw2VQeyyxmDiI7ONbAKs7drYD1fLreNuy+OfO\ngZTUYZX0w5snxzwDYje2owluwT8ZVvNAaIDMZFU7pAvbifsGMLLlHwi5Ytc4yMBc\n6DnRdeDo6s/rlWjkOYwWXmmmMEBOVYK9Ks1sZqSY/UdG1XGZA0mZqWzJcBV85GQ+\njyyhLazKbR2iq63exH0GVsDylexmwjdf/Ylz0y3boUEJh6CtN33ZFpiWLYxwKm6+\nr9YI5SqhWPsfaaG2jNgWaZDW/KzZiR3hYJMlMmbqMFDQrXiVx24svB9lxVwr9QdE\nz8pj+w85AnJbp9RNHHUEcQ8u/7M2JZTKpJwXIllw+QKBgQD0S5BegdhSlun7PRY4\nj9xPEas7A509T4+Uj2odVhN8XPtm/bP8m88Yquq4xNcdM2dmqTHMQ4Zym4XHtcZc\n4sho45CUVG6HpRiKsz0p0BxjfT1PuwGBqvwcuPO2IaIKce2dwuIG4kdWMUgjk+O4\nQIKMXiUs+JVuyHZ0jvExkSBjqQKBgQC7pnQSCtAPRjwJBDGcmox9Vc5ygVxrVvSt\n2qV933Wxs4fUv3pJVAL9CfiEixwjqVxy4mD73gIYL+lzvVYM67SPVWAIjg/zEXX/\nbIrQLkbkgBNoRcsZjNLtkFz2/yTSPi+kVKJ3/B+yfXnBcG9TJ7fDGrrwa5vCupUj\nGzEGwqPZCwKBgQDKMSiCL/G9GY77FCoqEleDUdpo86rWrdzmVnS7Zxyll8e0DFNF\nxid4AS5YUwK/9mWkgHDo4RKMFNB65KYTBthch8yIGAGLX0eatJLw4oA8j9GJBfxP\nOBeGJkX//oJBJt5F7qBoliv42L0eRS76ttnWF62pNO1pTZ1NB2n1XmpyUQKBgGeq\nLCMvgAOALHharcGzC3vOJG/TkSfncOJ+kMA5674QzTA126uY0tHRaU5nv1LgJCd/\nck6SNhwAk/qRlXEr4aLxak0vlhYVBlfmMcWSWy2up4oKTIo/5uLAxurYxxGyswUY\nkGyyhxxG/zVjFM0eewE4yh85g2IPS4aKZgozCutDAoGBAMxvmuQ1v0i0rIPLd1oV\nlcd1uKVZCiwVSt9IeioQzp9XBLEI4XqnfR9tLcGO3dNUrWxUkLRBLq0ctHZXIVhK\nXRiTxWWf0vZMv6VEuLOB+cgQT74jiDoZoefZmTadnYSEZM2+0c5AQECiJ7P11SHH\nvlI22CjorSw6vGyZTqCU4+zi\n-----END PRIVATE KEY-----\n",
  "client_email": "matomoreportssheet@peppy-appliance-323108.iam.gserviceaccount.com",
  "client_id": "105120659914373762228",
  "auth_uri": "https://accounts.google.com/o/oauth2/auth",
  "token_uri": "https://oauth2.googleapis.com/token",
  "auth_provider_x509_cert_url": "https://www.googleapis.com/oauth2/v1/certs",
  "client_x509_cert_url": "https://www.googleapis.com/robot/v1/metadata/x509/matomoreportssheet%40peppy-appliance-323108.iam.gserviceaccount.com"
}
